2021/07/12 10:44:21 INFO  : fact_isr_df.csv: Updated modification time in destination
2021/07/12 10:44:21 INFO  : There was nothing to transfer
2021/07/12 10:44:21 INFO  : 
Transferred:   	         0 / 0 Bytes, -, 0 Bytes/s, ETA -
Checks:                 1 / 1, 100%
Elapsed time:         2.3s

